<svg xmlns="http://www.w3.org/2000/svg" viewBox="0 0 142.96 23.46">
    <defs>
        <style>.cls-1,.cls-2{fill:#00fffd;}.cls-1{stroke:#00fffd;stroke-miterlimit:10;stroke-width:1.16px;}</style>
    </defs>
    <g id="图层_2" data-name="图层 2">
        <g id="图层_1-2" data-name="图层 1">
            <path class="cls-1"
                  d="M39.81,16.29a6.43,6.43,0,0,1-4.64,1.82c-4.54,0-6.46-3.13-6.48-6.31a6.15,6.15,0,0,1,6.48-6.44,6.31,6.31,0,0,1,4.49,1.87L38.12,8.71a4.18,4.18,0,0,0-2.95-1.15A4,4,0,0,0,31,11.8a3.92,3.92,0,0,0,4.21,4.14,4.51,4.51,0,0,0,3.07-1.24Zm15-10.67v7c0,3.62-2.22,5.47-5.29,5.47a5.1,5.1,0,0,1-5.43-5.47v-7h2.28v7c0,2.2,1.26,3.37,3.16,3.37s3-1.27,3-3.37v-7ZM71,17.83H68.3l-3.57-4.09H62.52v4.09H60.21V5.58L66,5.6c2.88,0,4.4,1.94,4.4,4.05a3.64,3.64,0,0,1-3.09,3.85L71,17.67ZM62.52,7.75v3.91H66a1.9,1.9,0,0,0,2.09-1.95,1.91,1.91,0,0,0-2.09-2ZM84.24,17.83H75.09V5.6h9.15V7.84H77.38v2.81H84V12.8H77.38v2.76h6.86Zm15.7-1.54a6.44,6.44,0,0,1-4.64,1.82c-4.55,0-6.47-3.13-6.48-6.31A6.15,6.15,0,0,1,95.3,5.36a6.29,6.29,0,0,1,4.48,1.87L98.25,8.71a4.2,4.2,0,0,0-3-1.15,4,4,0,0,0-4.21,4.24,3.91,3.91,0,0,0,4.21,4.14,4.51,4.51,0,0,0,3.07-1.24Zm12.57-.77h-6.39l-1.05,2.31h-2.49L108.06,5.6h2.51l5.49,12.23h-2.52Zm-3.19-7.35-2.27,5.2h4.54ZM122.73,5.6V15.7H129v2.13h-8.6V5.6Zm13.36,0V15.7h6.29v2.13h-8.6V5.6Z"/>
            <path class="cls-2"
                  d="M18.89,16.37a2,2,0,0,0-1.41.6h0l0,0,0,0A7.75,7.75,0,0,1,7.91,18.5L6,20.39l-.53-.54h0L3.75,18.11h0l-.54-.53L3.75,17h0l1.31-1.31A7.78,7.78,0,0,1,17,6h0a2,2,0,0,0,3.4-1.38,2,2,0,0,0-.57-1.39h0l-.1-.09a11.73,11.73,0,1,0,.55,16.6,2,2,0,0,0-1.4-3.39Z"/>
            <path class="cls-2"
                  d="M12,11.73a2,2,0,1,1-2-2A2,2,0,0,1,12,11.73Zm3.72-2a2,2,0,1,0,2,2A2,2,0,0,0,15.76,9.75Zm5.69,0a2,2,0,1,0,2,2A2,2,0,0,0,21.45,9.75Z"/>
        </g>
    </g>
</svg>