<svg xmlns="http://www.w3.org/2000/svg" width="256" height="41" viewBox="0 0 256 41">
  <g id="Group_48" data-name="Group 48" transform="translate(11506 -192)" opacity="0.25">
    <text id="S" transform="translate(-11505 225)" stroke="#000" stroke-width="1" font-size="35" font-family="Arial-BoldMT, Arial" font-weight="700"><tspan x="0" y="0">S</tspan></text>
    <text id="C" transform="translate(-11459 225)" stroke="#000" stroke-width="1" font-size="35" font-family="Arial-BoldMT, Arial" font-weight="700"><tspan x="0" y="0">C</tspan></text>
    <text id="N" transform="translate(-11413 225)" stroke="#000" stroke-width="1" font-size="35" font-family="Arial-BoldMT, Arial" font-weight="700"><tspan x="0" y="0">N</tspan></text>
    <text id="O" transform="translate(-11367 225)" stroke="#000" stroke-width="1" font-size="35" font-family="Arial-BoldMT, Arial" font-weight="700"><tspan x="0" y="0">O</tspan></text>
    <text id="Z" transform="translate(-11321 225)" stroke="#000" stroke-width="1" font-size="35" font-family="Arial-BoldMT, Arial" font-weight="700"><tspan x="0" y="0">Z</tspan></text>
    <text id="V" transform="translate(-11275 225)" stroke="#000" stroke-width="1" font-size="35" font-family="Arial-BoldMT, Arial" font-weight="700"><tspan x="0" y="0">V</tspan></text>
  </g>
</svg>
