<svg xmlns="http://www.w3.org/2000/svg" width="49.639" height="55.798" viewBox="0 0 49.639 55.798">
  <g id="Add" transform="translate(12786 4520)">
    <path id="Path_61" data-name="Path 61" d="M44.932,38.937a4.691,4.691,0,0,0-3.367,1.421h0l-.058.062-.071.075A18.5,18.5,0,0,1,18.8,44l-4.48,4.48-1.267-1.267,0,0L8.913,43.072l0,0L7.644,41.8l1.269-1.269h0l3.124-3.124A18.491,18.491,0,0,1,40.443,14.319l0,0A4.706,4.706,0,1,0,47.182,7.74h0a.029.029,0,0,0-.008-.006c-.077-.079-.158-.154-.241-.227a27.9,27.9,0,1,0,1.31,39.48,4.705,4.705,0,0,0-3.311-8.05Z" transform="translate(-12786 -4520)" fill="#fff"/>
    <rect id="Rectangle_73" data-name="Rectangle 73" width="22" height="8" transform="translate(-12768 -4496)" fill="#fff"/>
    <rect id="Rectangle_74" data-name="Rectangle 74" width="22" height="8" transform="translate(-12761 -4481) rotate(-90)" fill="#fff"/>
  </g>
</svg>
