<svg xmlns="http://www.w3.org/2000/svg" width="233.176" height="107" viewBox="0 0 233.176 107">
  <path id="Union_19" data-name="Union 19" d="M12636.041,2335.5a26,26,0,0,1-26-26v-26.378l-14.86-11.622,14.86-4.179V2256.5a26,26,0,0,1,26-26h163.143a26,26,0,0,1,26,26v53a26,26,0,0,1-26,26Z" transform="translate(-12593.009 -2229.5)" fill="none" stroke="#fff" stroke-width="2"/>
</svg>
