<svg xmlns="http://www.w3.org/2000/svg" width="263.869" height="159.729" viewBox="0 0 263.869 159.729">
  <path id="Union_19" data-name="Union 19" d="M12635.615,2388.231a26,26,0,0,1-26-26V2256.5a26,26,0,0,1,26-26h182.517a26,26,0,0,1,26,26v68.982l26,15.288-26,9.323v12.137a26,26,0,0,1-26,26Z" transform="translate(-12608.617 -2229.501)" fill="none" stroke="#fff" stroke-width="2"/>
</svg>
