<svg id="Component_51_1" data-name="Component 51 – 1" xmlns="http://www.w3.org/2000/svg" width="67" height="61" viewBox="0 0 67 61">
  <rect id="Rectangle_15" data-name="Rectangle 15" width="67" height="61" rx="10" fill="#fff"/>
  <circle id="Ellipse_2" data-name="Ellipse 2" cx="7.735" cy="7.735" r="7.735" transform="translate(14 14.53)" fill="#040097"/>
  <circle id="Ellipse_3" data-name="Ellipse 3" cx="7.735" cy="7.735" r="7.735" transform="translate(37.979 14.53)" fill="#040097"/>
  <path id="Path_81" data-name="Path 81" d="M-9651.38,7901.017s17.3,12.176,35.343,0" transform="translate(9667 -7860)" fill="none" stroke="#040091" stroke-width="5"/>
</svg>
