<svg xmlns="http://www.w3.org/2000/svg" xmlns:xlink="http://www.w3.org/1999/xlink" width="49.639" height="55.798" viewBox="0 0 49.639 55.798">
  <defs>
    <clipPath id="clip-path">
      <rect width="49.639" height="55.798" fill="none"/>
    </clipPath>
  </defs>
  <g id="Eye" clip-path="url(#clip-path)">
    <path id="Path_61" data-name="Path 61" d="M44.932,38.937a4.691,4.691,0,0,0-3.367,1.421h0l-.058.062-.071.075A18.5,18.5,0,0,1,18.8,44l-4.48,4.48-1.267-1.267,0,0L8.913,43.072l0,0L7.644,41.8l1.269-1.269h0l3.124-3.124A18.491,18.491,0,0,1,40.443,14.319l0,0A4.706,4.706,0,1,0,47.182,7.74h0a.029.029,0,0,0-.008-.006c-.077-.079-.158-.154-.241-.227a27.9,27.9,0,1,0,1.31,39.48,4.705,4.705,0,0,0-3.311-8.05Z" fill="#fff"/>
    <g id="Eyes" transform="translate(-1194 -414.78)">
      <path id="Eyes-2" data-name="Eyes" d="M16.542,17.645a20.752,20.752,0,0,1-6.355-.956A18.252,18.252,0,0,1,4.411,13.6,27.132,27.132,0,0,1,0,9.19V8.822A25.823,25.823,0,0,1,4.411,4.411,19.455,19.455,0,0,1,16.542,0,18.388,18.388,0,0,1,28.3,4.411a27.4,27.4,0,0,1,4.411,4.411V9.19A27.794,27.794,0,0,1,28.3,13.6a18.073,18.073,0,0,1-5.585,3.088A19.112,19.112,0,0,1,16.542,17.645Zm0-15.071A6.249,6.249,0,1,0,22.79,8.822,6.256,6.256,0,0,0,16.542,2.573Z" transform="translate(1209.001 434.103)" fill="#fff"/>
    </g>
    <circle id="Ellipse_45" data-name="Ellipse 45" cx="3" cy="3" r="3" transform="translate(25 23)" fill="#fff"/>
  </g>
</svg>
