<svg xmlns="http://www.w3.org/2000/svg" xmlns:xlink="http://www.w3.org/1999/xlink" width="48.493" height="36.668" viewBox="0 0 48.493 36.668">
  <defs>
    <clipPath id="clip-path">
      <rect width="48.493" height="36.668" fill="none"/>
    </clipPath>
  </defs>
  <g id="Listen_Open" data-name="Listen Open" clip-path="url(#clip-path)">
    <path id="Path_66" data-name="Path 66" d="M26.919,8.915H15.87L3.183.3a2.32,2.32,0,0,0-2.1-.1A1.741,1.741,0,0,0,0,1.754V34.914a1.742,1.742,0,0,0,1.085,1.551,2.32,2.32,0,0,0,2.1-.1l12.687-7.455h11.05a1.91,1.91,0,0,0,2.036-1.754V10.669A1.912,1.912,0,0,0,26.919,8.915Z" transform="translate(28.957 36.668) rotate(180)" fill="#fff"/>
    <line id="Line_3" data-name="Line 3" y1="8.084" x2="10.393" transform="translate(34.636 0.911)" fill="none" stroke="#fff" stroke-width="3"/>
    <line id="Line_4" data-name="Line 4" x2="12.703" transform="translate(35.791 18.233)" fill="none" stroke="#fff" stroke-width="3"/>
    <line id="Line_5" data-name="Line 5" x2="10.393" y2="8.084" transform="translate(34.636 27.471)" fill="none" stroke="#fff" stroke-width="3"/>
  </g>
</svg>
