<svg xmlns="http://www.w3.org/2000/svg" xmlns:xlink="http://www.w3.org/1999/xlink" width="54.879" height="44.514" viewBox="0 0 54.879 44.514">
  <defs>
    <clipPath id="clip-path">
      <rect width="54.879" height="44.514" fill="none"/>
    </clipPath>
  </defs>
  <g id="Scan_icon" data-name="Scan icon" clip-path="url(#clip-path)">
    <path id="Subtraction_3" data-name="Subtraction 3" d="M44.513,44.514H29.879V39.547h9.669V29.878h4.965V44.513Zm-29.269,0H0V29.878H5.576v9.669h9.669v4.966ZM5.576,15.245H0V0H15.244V5.576H5.576v9.669Zm38.938,0H39.549V5.576H29.879V0H44.513V15.243Z" transform="translate(4.878)" fill="#fff"/>
    <rect id="Rectangle_39" data-name="Rectangle 39" width="54.879" height="5.575" transform="translate(0 19.15)" fill="#fff"/>
  </g>
</svg>
