<svg xmlns="http://www.w3.org/2000/svg" xmlns:xlink="http://www.w3.org/1999/xlink" viewBox="0 0 324.72 295.71">
  <defs>
    <style>
      .cls-1 {
        stroke-miterlimit: 10;
        stroke-width: 3.29px;
        fill: url(#未命名的渐变_2);
        stroke: url(#未命名的渐变_3);
      }

      .cls-2 {
        fill: #33c;
      }

      .cls-3 {
        fill: url(#未命名的渐变_2-2);
      }
    </style>
    <linearGradient id="未命名的渐变_2" data-name="未命名的渐变 2" x1="1.65" y1="276.04" x2="323.08" y2="276.04" gradientUnits="userSpaceOnUse">
      <stop offset="0" stop-color="#33c"/>
      <stop offset="0.29" stop-color="#335ccc"/>
      <stop offset="0.95" stop-color="#33c4cc"/>
      <stop offset="1" stop-color="#3cc"/>
    </linearGradient>
    <linearGradient id="未命名的渐变_3" data-name="未命名的渐变 3" y1="276.04" x2="324.72" y2="276.04" gradientUnits="userSpaceOnUse">
      <stop offset="0" stop-color="#33c"/>
      <stop offset="0.42" stop-color="#3370cc"/>
      <stop offset="1" stop-color="#3cc"/>
    </linearGradient>
    <linearGradient id="未命名的渐变_2-2" x1="122.8" y1="110.38" x2="267.19" y2="110.38" xlink:href="#未命名的渐变_2"/>
  </defs>
  <title>Logo color</title>
  <g id="图层_2" data-name="图层 2">
    <g id="图层_1-2" data-name="图层 1">
      <g>
        <path class="cls-1" d="M33.1,288.93A18.22,18.22,0,0,1,20,294.07c-12.83,0-18.26-8.84-18.31-17.83S7.47,258,20,258a17.81,17.81,0,0,1,12.69,5.29l-4.34,4.19A11.88,11.88,0,0,0,20,264.24c-8.34,0-12,6.23-11.9,12s3.36,11.7,11.9,11.7a12.71,12.71,0,0,0,8.69-3.5Zm42.36-30.17v19.8c0,10.22-6.27,15.46-15,15.46-8.29,0-15.36-5-15.36-15.46v-19.8h6.47v19.8c0,6.22,3.56,9.53,8.94,9.53s8.44-3.6,8.44-9.53v-19.8Zm45.92,34.52h-7.75l-10.07-11.56H97.29v11.56H90.77V258.66c5.48,0,11,0,16.44,0,8.15.05,12.44,5.48,12.44,11.46,0,4.74-2.17,9.53-8.74,10.86l10.47,11.8ZM97.29,264.79v11.06h9.92c4.15,0,5.92-2.77,5.92-5.53s-1.82-5.53-5.92-5.53Zm61.42,28.49H132.83V258.71h25.88V265H139.3v8H158v6.08H139.3v7.8h19.41Zm44.38-4.35A18.18,18.18,0,0,1,190,294.07c-12.84,0-18.27-8.84-18.32-17.83S177.47,258,190,258a17.81,17.81,0,0,1,12.69,5.29l-4.34,4.19a11.91,11.91,0,0,0-8.35-3.26c-8.34,0-12,6.23-11.9,12s3.36,11.7,11.9,11.7a12.73,12.73,0,0,0,8.69-3.5Zm35.55-2.17H220.57l-3,6.52h-7.06l15.5-34.57h7.11l15.51,34.57h-7.11Zm-9-20.79-6.42,14.72H236Zm37.92-7.26v28.54H285.3v6H261V258.71Zm37.77,0v28.54h17.78v6h-24.3V258.71Z"/>
        <path class="cls-2" d="M224.5,154.05a18.58,18.58,0,0,0-13.32,5.62h0a2.73,2.73,0,0,1-.23.25l-.27.29a73.16,73.16,0,0,1-89.55,13.87L103.39,191.8l-5-5h0L82,170.41h0l-5-5,5-5h0L94.36,148a73.17,73.17,0,0,1,112.4-91.36h0a18.62,18.62,0,1,0,26.64-26h0l0,0q-.47-.46-1-.9A110.38,110.38,0,1,0,237.6,185.9a18.61,18.61,0,0,0-13.1-31.85Z"/>
        <path class="cls-3" d="M160.05,110.38a18.63,18.63,0,1,1-18.62-18.62A18.62,18.62,0,0,1,160.05,110.38ZM195,91.76a18.62,18.62,0,1,0,18.62,18.62A18.62,18.62,0,0,0,195,91.76Zm53.57,0a18.62,18.62,0,1,0,18.62,18.62A18.62,18.62,0,0,0,248.57,91.76Z"/>
      </g>
    </g>
  </g>
</svg>
