<svg id="组_212" data-name="组 212" xmlns="http://www.w3.org/2000/svg" width="44.538" height="43.531" viewBox="0 0 44.538 43.531">
  <ellipse id="椭圆_129" data-name="椭圆 129" cx="10.586" cy="11.081" rx="10.586" ry="11.081" transform="translate(12.713)" fill="#707070"/>
  <path id="路径_84" data-name="路径 84" d="M84.414,80.513c0-.1-.049-.2-.049-.3h0a3.874,3.874,0,0,0-.94-1.781h0a4.263,4.263,0,0,0-1.979-1.187h0a3.19,3.19,0,0,0-.989-.148,4.056,4.056,0,1,0,4.056,4.056,3.4,3.4,0,0,0-.1-.643Z" transform="translate(-41.081 -41.929)" fill="#707070"/>
  <path id="路径_85" data-name="路径 85" d="M17.663,73.056A4.075,4.075,0,0,0,13.607,69h-.544c-.1,0-.2.049-.3.049-.049,0-.049,0-.1.049a.7.7,0,0,0-.3.1c-.049,0-.049,0-.049.049a.7.7,0,0,1-.3.1h-.049a2.412,2.412,0,0,1-.346.148h0a2.15,2.15,0,0,1-.346.2h0a3.106,3.106,0,0,0-.594.544h0A3.972,3.972,0,0,0,9.6,73.007a4.075,4.075,0,0,0,4.056,4.056A3.99,3.99,0,0,0,17.663,73.056Z" transform="translate(-7.325 -37.836)" fill="#707070"/>
  <path id="路径_86" data-name="路径 86" d="M49.52,59.141c-1.237-9.943-14.147-13.158-15.681-13.5l-5.392,4.254-5.392-4.254c-1.138.247-8.36,2.028-12.614,6.876L6.83,39.8,5,40.295,8.71,53.552a5.5,5.5,0,0,1,2.572-.643,5.4,5.4,0,0,1,.791,10.734,36.452,36.452,0,0,0,9.349,2.424V53.205s6.678,0,11.278,3.017l.049,10.388h1.336l-.049-10.388c4.6-3.017,11.278-3.017,11.278-3.017v3.858a5.405,5.405,0,0,1,4.007,3.265A2.024,2.024,0,0,0,49.52,59.141Z" transform="translate(-5 -23.08)" fill="#707070"/>
</svg>
