<svg xmlns="http://www.w3.org/2000/svg" xmlns:xlink="http://www.w3.org/1999/xlink" viewBox="0 0 24.199 34.276">
  <defs>
    <style>
      .cls-1 {
        fill: url(#linear-gradient);
      }
    </style>
    <linearGradient id="linear-gradient" x1="0.5" y1="-0.136" x2="0.527" y2="1.779" gradientUnits="objectBoundingBox">
      <stop offset="0" stop-color="#33c" stop-opacity="0"/>
      <stop offset="1" stop-color="#33c"/>
    </linearGradient>
  </defs>
  <g id="Left" transform="translate(-606.039 -316.961)">
    <path id="Dropup" class="cls-1" d="M10.428,17.347l.008-.008L0,7.607,6.728.392,17.29,10.241,27.179,0l7.1,6.853L17.524,24.2Z" transform="translate(630.238 316.961) rotate(90)"/>
  </g>
</svg>
