<svg xmlns="http://www.w3.org/2000/svg" xmlns:xlink="http://www.w3.org/1999/xlink" viewBox="0 0 324.72 39.33">
  <defs>
    <style>
      .cls-1 {
        stroke-miterlimit: 10;
        stroke-width: 3.29px;
        fill: url(#未命名的渐变_2);
        stroke: url(#未命名的渐变_3);
      }
    </style>
    <linearGradient id="未命名的渐变_2" data-name="未命名的渐变 2" x1="1.65" y1="19.67" x2="323.08" y2="19.67" gradientUnits="userSpaceOnUse">
      <stop offset="0" stop-color="#33c"/>
      <stop offset="0.29" stop-color="#335ccc"/>
      <stop offset="0.95" stop-color="#33c4cc"/>
      <stop offset="1" stop-color="#3cc"/>
    </linearGradient>
    <linearGradient id="未命名的渐变_3" data-name="未命名的渐变 3" y1="19.67" x2="324.72" y2="19.67" gradientUnits="userSpaceOnUse">
      <stop offset="0" stop-color="#33c"/>
      <stop offset="0.42" stop-color="#3370cc"/>
      <stop offset="1" stop-color="#3cc"/>
    </linearGradient>
  </defs>
  <title>Logo Font</title>
  <g id="图层_2" data-name="图层 2">
    <g id="图层_1-2" data-name="图层 1">
      <path class="cls-1" d="M33.1,32.55A18.22,18.22,0,0,1,20,37.69C7.13,37.69,1.7,28.85,1.65,19.86S7.47,1.65,20,1.65A17.8,17.8,0,0,1,32.65,6.93l-4.34,4.2A11.84,11.84,0,0,0,20,7.87c-8.34,0-12,6.22-11.9,12S11.42,31.57,20,31.57a12.72,12.72,0,0,0,8.69-3.51ZM75.46,2.39v19.8c0,10.21-6.27,15.45-15,15.45-8.29,0-15.36-5-15.36-15.45V2.39h6.47v19.8c0,6.22,3.56,9.52,8.94,9.52S69,28.11,69,22.19V2.39ZM121.38,36.9h-7.75L103.56,25.35H97.29V36.9H90.77V2.29c5.48,0,11,0,16.44,0,8.15.05,12.44,5.48,12.44,11.45,0,4.74-2.17,9.53-8.74,10.86l10.47,11.8ZM97.29,8.41V19.47h9.92c4.15,0,5.92-2.77,5.92-5.53s-1.82-5.53-5.92-5.53ZM158.71,36.9H132.83V2.34h25.88V8.66H139.3v8H158v6.07H139.3v7.8h19.41Zm44.38-4.35A18.18,18.18,0,0,1,190,37.69c-12.84,0-18.27-8.84-18.32-17.83S177.47,1.65,190,1.65a17.8,17.8,0,0,1,12.69,5.28l-4.34,4.2A11.87,11.87,0,0,0,190,7.87c-8.34,0-12,6.22-11.9,12s3.36,11.71,11.9,11.71a12.74,12.74,0,0,0,8.69-3.51Zm35.55-2.17H220.57l-3,6.52h-7.06l15.5-34.56h7.11L248.67,36.9h-7.11Zm-9-20.79-6.42,14.72H236Zm37.92-7.25V30.87H285.3v6H261V2.34Zm37.77,0V30.87h17.78v6h-24.3V2.34Z"/>
    </g>
  </g>
</svg>
