<svg xmlns="http://www.w3.org/2000/svg" xmlns:xlink="http://www.w3.org/1999/xlink" viewBox="0 0 36.946 36.967">
  <defs>
    <style>
      .cls-1 {
        fill: url(#linear-gradient);
      }

      .cls-2 {
        fill: url(#linear-gradient-2);
      }
    </style>
    <linearGradient id="linear-gradient" x1="0.999" y1="0.553" x2="-0.419" y2="0.481" gradientUnits="objectBoundingBox">
      <stop offset="0" stop-color="#fff"/>
      <stop offset="0.798" stop-color="#fff" stop-opacity="0.2"/>
      <stop offset="1" stop-color="#fff" stop-opacity="0"/>
    </linearGradient>
    <linearGradient id="linear-gradient-2" x1="0.501" y1="-0.078" x2="0.495" y2="2.384" gradientUnits="objectBoundingBox">
      <stop offset="0" stop-color="#fff"/>
      <stop offset="1" stop-color="#fff" stop-opacity="0"/>
    </linearGradient>
  </defs>
  <g id="Pencil_light" data-name="Pencil light" transform="translate(-1019 -652)">
    <rect id="矩形_72" data-name="矩形 72" class="cls-1" width="26.871" height="12.927" transform="translate(1027.805 671.001) rotate(-45)"/>
    <path id="路径_14" data-name="路径 14" class="cls-2" d="M6.444,0,0,11.266H12.887Z" transform="translate(1028.113 688.966) rotate(-135)"/>
  </g>
</svg>
