<svg xmlns="http://www.w3.org/2000/svg" xmlns:xlink="http://www.w3.org/1999/xlink" viewBox="0 0 43.517 42.068">
  <defs>
    <style>
      .cls-1 {
        fill: url(#linear-gradient);
      }
    </style>
    <linearGradient id="linear-gradient" x1="1.186" y1="1" x2="-0.126" y2="1" gradientUnits="objectBoundingBox">
      <stop offset="0" stop-color="#33c" stop-opacity="0.6"/>
      <stop offset="1" stop-color="#33c" stop-opacity="0"/>
    </linearGradient>
  </defs>
  <g id="Shrink" transform="translate(-1189.44 -728.544)">
    <path id="up" class="cls-1" d="M8.194,13.167H0V5.3H8.194V0L18.929,9.526,8.194,19.049Z" transform="translate(1232.957 742.014) rotate(135)"/>
    <path id="down" class="cls-1" d="M8.194,13.167H0V5.3H8.194V0L18.929,9.526,8.194,19.049Z" transform="translate(1189.44 757.143) rotate(-45)"/>
  </g>
</svg>
